8.2 【例1】少子高齢化の可視化 | Rによるデータ解析入門
…
## # A tibble: 7 x 4
##   `@code` `@name`                    `@level` `@unit`
##   <chr>   <chr>                      <chr>    <chr>  
## 1 A1301   A1301_15歳未満人口         1        人     
## 2 A130101 A130101_15歳未満人口（男） 1        人     
## 3 A130102 A130102_15歳未満人口（女） 1        人     
## 4 A1302   A1302_15～64歳人口         1        人     
## 5 A130201 A130201_15～64歳人口（男） 1        人     
## 6 A130202 A130202_15～64歳人口（女） 1        人     
## 7 A1303   A1303_65歳以上人口         1        人

metainfo_result$area

## # A tibble: 48 x 3
##    `@code` `@name` `@level`
##    <chr>   <chr>   <chr>   
##  1 00000   全国    1       
##  2 01000   北海道  2       
##  3 02000   青森県  2       
##  4 03000   岩手県  2       
##  5 04000   宮城県  2       
##  6 05000   秋田県  2       
##  7 06000   山形県  2       
##  8 07000   福島県  2       
##  9 08000   茨城県  2       
## 10 09000   栃木県  2       
## # ... with 38 more rows
…
