4.1 2つのテーブルを結合するverb | Rによるデータ解析入門
…
nycflights13パッケージには、flightsデータの他に、空港の情報が集約されたairportsデータが含まれています。例えば、空港ごとの遅延に関する要約を地図上に可視化したいような場合、空港の緯度経度の情報はairportsの方に含まれているため、これら両方のテーブルを結合したうえで分析する必要があります。

flights %>% 
    group_by(dest) %>% 
    summarise(
        arr_delay = mean(arr_delay, na.rm = TRUE),
        n = n(), .groups = "drop"
    ) %>%
    left_join(airports, by = c("dest" = "faa"))

## # A tibble: 105 x 10
##    dest  arr_delay     n name              lat    lon   alt    tz dst   tzone   
##    <chr>     <dbl> <int> <chr>           <dbl>  <dbl> <dbl> <dbl> <chr> <chr>   
##  1 ABQ        4.38   254 Albuquerque In~  35.0 -107.   5355    -7 A     America~
##  2 ACK        4.85   265 Nantucket Mem    41.3  -70.1    48    -5 A     America~
##  3 ALB       14.4    439 Albany Intl      42.7  -73.8   285    -5 A     America~
##  4 ANC       -2.5      8 Ted Stevens An~  61.2 -150.    152    -9 A     America~
##  5 ATL       11.3  17215 Hartsfield Jac~  33.6  -84.4  1026    -5 A     America~
##  6 AUS        6.02  2439 Austin Bergstr~  30.2  -97.7   542    -6 A     America~
##  7 AVL        8.00   275 Asheville Regi~  35.4  -82.5  2165    -5 A     America~
##  8 BDL        7.05   443 Bradley Intl     41.9  -72.7   173    -5 A     America~
##  9 BGR        8.03   375 Bangor Intl      44.8  -68.8   192    -5 A     America~
## 10 BHM       16.9    297 Birmingham Intl  33.6  -86.8   644    -6 A     America~
## # ... with 95 more rows

また、weatherデータには、出発地（EWR：ニューアークリバティー国際空港）における時間ごとの温度、湿度、風速、降雨量などの情報が含まれています。これらの気象条件と飛行機の遅延に関する分析を行いたいような場合でも、テーブルの結合処理が必要となります。

flights %>% 
  group_by(year, month, day, hour) %>% 
  summarise(
    arr_delay = mean(arr_delay, na.rm = TRUE),
    n = n(), .groups = "drop"
  ) %>% 
  left_join(weather)

## Joining, by = c("year", "month", "day", "hour")

## # A tibble: 20,720 x 17
##     year month   day  hour arr_delay     n origin  temp  dewp humid wind_dir
##    <int> <int> <int> <dbl>     <dbl> <int> <chr>  <dbl> <dbl> <dbl>    <dbl>
##  1  2013     1     1     5      9        6 EWR     39.0  28.0  64.4      260
##  2  2013     1     1     5      9        6 JFK     39.0  27.0  61.6      260
##  3  2013     1     1     5      9        6 LGA     39.9  25.0  54.8      250
##  4  2013     1     1     6      3.78    52 EWR     37.9  28.0  67.2      240
##  5  2013     1     1     6      3.78    52 JFK     37.9  27.0  64.3      260
##  6  2013     1     1     6      3.78    52 LGA     39.9  25.0  54.8      260
##  7  2013     1     1     7      3.76    49 EWR     39.0  28.0  64.4      240
##  8  2013     1     1     7      3.76    49 JFK     39.0  28.0  64.4      260
##  9  2013     1     1     7      3.76    49 LGA     39.9  26.1  57.3      250
## 10  2013     1     1     8     -2.40    58 EWR     39.9  28.0  62.2      250
## # ... with 20,710 more rows, and 6 more variables: wind_speed <dbl>,
## #   wind_gust <dbl>, precip <dbl>, pressure <dbl>, visib <dbl>,
## #   time_hour <dttm>
